0003
0004
0006
0010
0012
0015
0016
0018
0019
0021
0022
0023
0025
0026
0027
0029
0030
0033
0034
0035
0037
0039
0040
0041
0043
0044
0046
0049
0050
0051
0053
0054
0055
0056
0059
0061
0062
0064
0066
0067
0068
0070
0071
0072
0074
0075
0077
0078
0079
0081
0083
0085
0086
0088
0089
0091
0092
0094
0097
0099
0100
0101
0102
0104
0105
0106
0107
0109
0111
0112
0114
0115
0116
0119
0120
0122
0123
0124
0126
0127
0128
0130
0131
0133
0134
0139
0140
0145
0147
0148
0149
0150
0153
0154
0155
0157
0158
0159
0160
0162
0167
0168
0169
0170
0176
0177
0179
0180
0181
0182
0183
0184
0185
0187
0188
0190
0191
0192
0193
0194
0195
0196
0198
0199
0202
0203
0204
0205
0206
0207
0208
0209
0210
0212
0213
0214
0215
0216
0217
0218
0220
0221
0222
0223
0224
0227
0228
0229
0231
0234
0235
0236
0238
0239
0240
0241
0242
0244
0245
0246
0248
0249
0250
0251
0253
0254
0256
0257
0258
0259
0261
0263
0264
0265
0267
0268
0269
0270
0271
0276
0278
0280
0281
0282
0284
0288
0289
0290
0291
0293
0294
0296
0297
0300
0302
0303
0304
0306
0307
0308
0309
0310
0312
0314
0315
0317
0319
0320
0322
0324
0325
0326
0330
0331
0334
0336
0338
0339
0341
0343
0345
0346
0347
0348
0351
0352
0353
0354
0355
0356
0358
0359
0361
0364
0366
0367
0369
0370
0371
0372
0377
0380
0381
0382
0383
0384
0385
0386
0387
0389
0390
0391
0393
0395
0396
0397
0399
0400
0401
0403
0404
0406
0407
0410
0412
0414
0415
0417
0418
0419
0421
0425
0426
0427
0429
0430
0432
0433
0434
0439
0442
0443
0445
0448
0451
0452
0455
0456
0457
0461
0463
0464
0465
0467
0468
0469
0472
0473
0474
0476
0477
0478
0479
0480
0481
0482
0483
0484
0485
0490
0492
0494
0497
0500
0501
0502
0506
0507
0510
0511
0512
0515
0516
0517
0518
0524
0525
0526
0528
0530
0531
0533
0539
0540
0542
0543
0545
0546
0547
0549
0550
0553
0554
0555
0559
0560
0561
0565
0567
0568
0570
0571
0572
0573
0577
0578
0579
0580
0582
0583
0585
0587
0587
0588
0589
0590
0591
0592
0594
0598
0599
0601
0605
0606
0607
0608
0610
0614
0615
0616
0617
0618
0619
0620
0621
0623
0625
0627
0629
0631
0633
0634
0635
0637
0638
0640
0643
0645
0647
0648
0649
0650
0651
0654
0655
0656
0658
0662
0663
0668
0670
0671
0672
0674
0675
0677
0678
0681
0683
0687
0688
0689
0690
0691
0692
0696
0698
0699
0700
0701
0705
0706
0707
0708
0711
0713
0716
0720
0722
0723
0726
0727
0728
0729
0731
0734
0735
0736
0740
0741
0743
0746
0747
0748
0749
0752
0758
0761
0762
0767
0770
0772
0773
0775
0777
0779
0785
0787
0788
0789
0790
0791
0792
0793
0794
0796
0797
0798
0802
0803
0804
0806
0807
0809
0810
0811
0812
0813
0814
0818
0819
0821
0822
0823
0824
0827
0828
0830
0831
0834
0837
0838
0841
0842
0843
0844
0845
0847
0848
0852
0853
0856
0857
0859
0861
0864
0865
0872
0875
0879
0884
0886
0887
0889
0890
0891
0893
0894
0895
0898
0900
0901
0902
0904
0905
0913
0914
0915
0917
0920
0925
0926
0927
0928
0929
0932
0933
0935
0941
0943
0944
0945
0946
0947
0948
0950
0952
0956
0958
0961
0963
0964
0965
0967
0968
0969
0970
0973
0974
0978
0979
0981
0982
0984
0985
0986
0990
0991
0992
0993
0995
1002
1003
1006
1009
1011
1012
1013
1014
1018
1019
1020
1021
1024
1027
1031
1032
1033
1034
1037
1039
1040
1041
1042
1043
1044
1045
1046
1048
1051
1052
1053
1054
1055
1056
1058
1059
1061
1062
1063
1064
1066
1069
1070
1071
1072
1073
1076
1078
1082
1085
1086
1087
1089
1094
1096
1101
1102
1104
1106
1107
1109
1110
1111
1112
1113
1114
1116
1118
1119
1121
1124
1125
1126
1127
1134
1135
1138
1139
1140
1141
1142
1143
1145
1146
1147
1148
1149
1153
1154
1155
1160
1161
1163
1164
1167
1168
1169
1170
1171
1173
1174
1177
1178
1180
1181
1182
1188
1190
1192
1193
1194
1197
1200
1201
1203
1208
1210
1211
1212
1213
1218
1220
1221
1223
1225
1228
1232
1234
1239
1240
1244
1245
1246
1247
1248
1249
1253
1256
1257
1258
1261
1265
1267
1268
1269
1270
1272
1273
1276
1277
1279
1281
1282
1285
1286
1287
1289
1290
1292
