<?xml version="1.0" encoding="UTF-8"?>
<deployment-project plugin="plugin.deploytool" plugin-version="1.0">
  <configuration target="target.standalone" target-name="Standalone Application" name="audfprint_MACI64" location="/Users/dpwe/projects/audfprint" file="/Users/dpwe/projects/audfprint/audfprint_MACI64.prj" build-checksum="3308803911">
    <param.project.name>/Users/dpwe/projects/audfprint/audfprint_MACI64.prj</param.project.name>
    <param.target.type>Standalone Application</param.target.type>
    <param.appname>audfprint_MACI64</param.appname>
    <param.intermediate>${PROJECT_ROOT}/audfprint_MACI64/src</param.intermediate>
    <param.output>${PROJECT_ROOT}/audfprint_MACI64/distrib</param.output>
    <param.embed.ctf>true</param.embed.ctf>
    <param.tbx_on_path>
      <item>all</item>
    </param.tbx_on_path>
    <param.warnings>
      <warning.fullpath>on</warning.fullpath>
      <warning.duplicate>on</warning.duplicate>
      <warning.option.ignored>on</warning.option.ignored>
      <warning.libname>on</warning.libname>
      <warning.demo>on</warning.demo>
    </param.warnings>
    <param.version>1.0</param.version>
    <param.user.only.registration>false</param.user.only.registration>
    <param.c.cpp.options.file />
    <param.include.dirs />
    <param.lib.dirs />
    <param.lib.files />
    <param.defines />
    <param.undefines />
    <param.debug>false</param.debug>
    <param.share.mcr>false</param.share.mcr>
    <param.disable.jvm>true</param.disable.jvm>
    <param.disable.display>true</param.disable.display>
    <param.create.log>false</param.create.log>
    <param.log.file />
    <param.user.defined.mcr.options />
    <unset>
      <param.project.name />
      <param.target.type />
      <param.appname />
      <param.intermediate />
      <param.output />
      <param.embed.ctf />
      <param.tbx_on_path />
      <param.warnings />
      <param.version />
      <param.user.only.registration />
      <param.c.cpp.options.file />
      <param.include.dirs />
      <param.lib.dirs />
      <param.lib.files />
      <param.defines />
      <param.undefines />
      <param.debug />
      <param.share.mcr />
      <param.create.log />
      <param.log.file />
      <param.user.defined.mcr.options />
    </unset>
    <fileset.main>
      <file>${PROJECT_ROOT}/audfprint.m</file>
    </fileset.main>
    <fileset.resources>
      <file>/Users/dpwe/matlab/columbiafns/ReadSound.mexmaci64</file>
      <file>${PROJECT_ROOT}/jenkinshash.mexmaci64</file>
    </fileset.resources>
    <fileset.package />
    <build-deliverables>
      <file name="audfprint_MACI64.app" location="${PROJECT_ROOT}/audfprint_MACI64/distrib" optional="false">/Users/dpwe/projects/audfprint/audfprint_MACI64/distrib/audfprint_MACI64.app</file>
      <file name="readme.txt" location="${PROJECT_ROOT}/audfprint_MACI64/distrib" optional="true">/Users/dpwe/projects/audfprint/audfprint_MACI64/distrib/readme.txt</file>
      <file name="run_audfprint_MACI64.sh" location="${PROJECT_ROOT}/audfprint_MACI64/distrib" optional="false">/Users/dpwe/projects/audfprint/audfprint_MACI64/distrib/run_audfprint_MACI64.sh</file>
    </build-deliverables>
    <workflow />
    <matlab>
      <root>/Applications/MATLAB_R2012a.app</root>
      <path>
        <directory>/Users/dpwe/matlab/libsvm-mat</directory>
        <directory>/Users/dpwe/Documents/MATLAB</directory>
        <directory>${MATLAB_ROOT}/toolbox/matlab/demos</directory>
        <directory>${MATLAB_ROOT}/toolbox/matlab/graph2d</directory>
        <directory>${MATLAB_ROOT}/toolbox/matlab/graph3d</directory>
        <directory>${MATLAB_ROOT}/toolbox/matlab/graphics</directory>
        <directory>${MATLAB_ROOT}/toolbox/matlab/plottools</directory>
        <directory>${MATLAB_ROOT}/toolbox/matlab/scribe</directory>
        <directory>${MATLAB_ROOT}/toolbox/matlab/specgraph</directory>
        <directory>${MATLAB_ROOT}/toolbox/matlab/uitools</directory>
        <directory>${MATLAB_ROOT}/toolbox/local</directory>
        <directory>${MATLAB_ROOT}/toolbox/matlab/general</directory>
        <directory>${MATLAB_ROOT}/toolbox/matlab/ops</directory>
        <directory>${MATLAB_ROOT}/toolbox/matlab/lang</directory>
        <directory>${MATLAB_ROOT}/toolbox/matlab/elmat</directory>
        <directory>${MATLAB_ROOT}/toolbox/matlab/randfun</directory>
        <directory>${MATLAB_ROOT}/toolbox/matlab/elfun</directory>
        <directory>${MATLAB_ROOT}/toolbox/matlab/specfun</directory>
        <directory>${MATLAB_ROOT}/toolbox/matlab/matfun</directory>
        <directory>${MATLAB_ROOT}/toolbox/matlab/datafun</directory>
        <directory>${MATLAB_ROOT}/toolbox/matlab/polyfun</directory>
        <directory>${MATLAB_ROOT}/toolbox/matlab/funfun</directory>
        <directory>${MATLAB_ROOT}/toolbox/matlab/sparfun</directory>
        <directory>${MATLAB_ROOT}/toolbox/matlab/strfun</directory>
        <directory>${MATLAB_ROOT}/toolbox/matlab/iofun</directory>
        <directory>${MATLAB_ROOT}/toolbox/matlab/timefun</directory>
        <directory>${MATLAB_ROOT}/toolbox/matlab/datatypes</directory>
        <directory>${MATLAB_ROOT}/toolbox/matlab/verctrl</directory>
        <directory>${MATLAB_ROOT}/toolbox/matlab/codetools</directory>
        <directory>${MATLAB_ROOT}/toolbox/matlab/helptools</directory>
        <directory>${MATLAB_ROOT}/toolbox/matlab/hds</directory>
        <directory>${MATLAB_ROOT}/toolbox/matlab/guide</directory>
        <directory>${MATLAB_ROOT}/toolbox/matlab/datamanager</directory>
        <directory>${MATLAB_ROOT}/toolbox/matlab/optimfun</directory>
        <directory>${MATLAB_ROOT}/toolbox/matlab/audiovideo</directory>
        <directory>${MATLAB_ROOT}/toolbox/bioinfo/bioinfo</directory>
        <directory>${MATLAB_ROOT}/toolbox/bioinfo/biolearning</directory>
        <directory>${MATLAB_ROOT}/toolbox/bioinfo/microarray</directory>
        <directory>${MATLAB_ROOT}/toolbox/bioinfo/mass_spec</directory>
        <directory>${MATLAB_ROOT}/toolbox/bioinfo/proteins</directory>
        <directory>${MATLAB_ROOT}/toolbox/bioinfo/biomatrices</directory>
        <directory>${MATLAB_ROOT}/toolbox/bioinfo/graphtheory</directory>
        <directory>${MATLAB_ROOT}/toolbox/bioinfo/biodemos</directory>
        <directory>${MATLAB_ROOT}/toolbox/shared/comparisons</directory>
        <directory>${MATLAB_ROOT}/toolbox/compiler</directory>
        <directory>${MATLAB_ROOT}/toolbox/compiler/compilerdemos</directory>
        <directory>${MATLAB_ROOT}/toolbox/distcomp</directory>
        <directory>${MATLAB_ROOT}/toolbox/distcomp/distcomp</directory>
        <directory>${MATLAB_ROOT}/toolbox/distcomp/user</directory>
        <directory>${MATLAB_ROOT}/toolbox/distcomp/mpi</directory>
        <directory>${MATLAB_ROOT}/toolbox/distcomp/parallel</directory>
        <directory>${MATLAB_ROOT}/toolbox/distcomp/parallel/util</directory>
        <directory>${MATLAB_ROOT}/toolbox/distcomp/lang</directory>
        <directory>${MATLAB_ROOT}/toolbox/distcomp/cluster</directory>
        <directory>${MATLAB_ROOT}/toolbox/distcomp/gpu</directory>
        <directory>${MATLAB_ROOT}/toolbox/distcomp/pctdemos</directory>
        <directory>${MATLAB_ROOT}/toolbox/images/colorspaces</directory>
        <directory>${MATLAB_ROOT}/toolbox/images/images</directory>
        <directory>${MATLAB_ROOT}/toolbox/images/imuitools</directory>
        <directory>${MATLAB_ROOT}/toolbox/images/iptformats</directory>
        <directory>${MATLAB_ROOT}/toolbox/images/iptutils</directory>
        <directory>${MATLAB_ROOT}/toolbox/images/imdemos</directory>
        <directory>${MATLAB_ROOT}/toolbox/matlab/imagesci</directory>
        <directory>${MATLAB_ROOT}/toolbox/shared/instrument</directory>
        <directory>${MATLAB_ROOT}/toolbox/sam/m3i</directory>
        <directory>${MATLAB_ROOT}/toolbox/optim/optim</directory>
        <directory>${MATLAB_ROOT}/toolbox/optim/optimdemos</directory>
        <directory>${MATLAB_ROOT}/toolbox/shared/asynciolib</directory>
        <directory>${MATLAB_ROOT}/toolbox/shared/coder/coder</directory>
        <directory>${MATLAB_ROOT}/toolbox/shared/controllib/general</directory>
        <directory>${MATLAB_ROOT}/toolbox/shared/controllib/graphics</directory>
        <directory>${MATLAB_ROOT}/toolbox/shared/controllib/graphics/utils</directory>
        <directory>${MATLAB_ROOT}/toolbox/shared/controllib/graphics/plotoptions</directory>
        <directory>${MATLAB_ROOT}/toolbox/shared/dastudio</directory>
        <directory>${MATLAB_ROOT}/toolbox/shared/filterdesignlib</directory>
        <directory>${MATLAB_ROOT}/toolbox/shared/imageslib</directory>
        <directory>${MATLAB_ROOT}/toolbox/shared/optimlib</directory>
        <directory>${MATLAB_ROOT}/toolbox/shared/rptgen</directory>
        <directory>${MATLAB_ROOT}/toolbox/shared/siglib</directory>
        <directory>${MATLAB_ROOT}/toolbox/shared/spcuilib</directory>
        <directory>${MATLAB_ROOT}/toolbox/shared/statslib</directory>
        <directory>${MATLAB_ROOT}/toolbox/shared/testmeaslib/general</directory>
        <directory>${MATLAB_ROOT}/toolbox/shared/testmeaslib/graphics</directory>
        <directory>${MATLAB_ROOT}/toolbox/signal/signal</directory>
        <directory>${MATLAB_ROOT}/toolbox/signal/sigtools</directory>
        <directory>${MATLAB_ROOT}/toolbox/signal/sptoolgui</directory>
        <directory>${MATLAB_ROOT}/toolbox/signal/sigdemos</directory>
        <directory>${MATLAB_ROOT}/toolbox/shared/simulink</directory>
        <directory>${MATLAB_ROOT}/toolbox/stats/stats</directory>
        <directory>${MATLAB_ROOT}/toolbox/stats/classreg</directory>
        <directory>${MATLAB_ROOT}/toolbox/stats/statsdemos</directory>
        <directory>${MATLAB_ROOT}/toolbox/matlab/system</directory>
        <directory>${MATLAB_ROOT}/toolbox/matlab/timeseries</directory>
        <directory>${MATLAB_ROOT}/toolbox/wavelet/wavelet</directory>
        <directory>${MATLAB_ROOT}/toolbox/wavelet/wmultisig1d</directory>
        <directory>${MATLAB_ROOT}/toolbox/wavelet/wavedemo</directory>
        <directory>${MATLAB_ROOT}/toolbox/wavelet/compression</directory>
        <directory>/Users/dpwe/matlab</directory>
        <directory>/u/drspeech/share/lib/matlab/local</directory>
        <directory>/u/drspeech/x86_64-darwin/lib/matlab/local</directory>
        <directory>/Users/dpwe/matlab/dpwebox</directory>
        <directory>/Users/dpwe/matlab/icsifns</directory>
        <directory>/Users/dpwe/matlab/columbiafns</directory>
        <directory>/Users/dpwe/matlab/rastamat</directory>
        <directory>/Users/dpwe/matlab/KPMtools</directory>
        <directory>/Users/dpwe/matlab/KPMstats</directory>
        <directory>/Users/dpwe/matlab/KPMhmm</directory>
      </path>
    </matlab>
    <platform>
      <unix>true</unix>
      <mac>true</mac>
      <windows>false</windows>
      <win2k>false</win2k>
      <winxp>false</winxp>
      <vista>false</vista>
      <linux>false</linux>
      <solaris>false</solaris>
      <osver>10.8.3</osver>
      <os32>false</os32>
      <os64>true</os64>
      <arch>maci64</arch>
      <matlab>true</matlab>
    </platform>
  </configuration>
</deployment-project>

