0003   cabWLyM2Mgc
0006   Zf5UfOuvQHQ
0015   hwW4211ODo0
0016   QcLv2RB49_k
0018   kHXvosmjaOI
0019   K8WxLKuvEjo
0021   a7xHZ7Ki8dM
0022   OK50Tw4yjUI
0023   ZV9DNpkfak0
0025   WBnHS4W6anE
0026   LzcJCeZSbYk
0027   cZVynM1rwsI
0029   Zua9RlosehI
0030   KNM5g2ARGyY
0033   OZuW6BH_Vak
0034   hPaUrBvFZp4
0037   mmU6wELS4sc
0039   Bl9lfnNS4zU
0040   vUb_S4e-Rd4
0041   DVBp3sz72gg
0043   e9wq5GV2uIU
0044   zs0rxPJe-J4
0049   fPlQ6EtArSc
0051   OeNme0YYwmU
0054   bh4se9YMV3A
0055   43S_NDOaHJk
0056   r1pLqRdk9lw
0059   4ny5z8gKM18
0062   K0Ks1PdkZ3E
0064   QKoaLCcUR3w
0066   ZcqfEca8kR4
0067   L6f2ybUyElA
0068   R2wGQCWvp74
0070   3ahhmiuyko0
0071   nnjV7qIPVsA
0072   OCiLxRCBf40
0074   1wm6OnMBQAw
0075   l2VzlU9RLSE
0078   4__w8MOaLo0
0079   8bztE5IbQOo
0081   bYWvm3LZkZA
0083   LXbtsCDh-Go
0085   fhLYhi_iuKA
0086   EOlowNcrBO8
0089   h9I1QJl028U
0091   80GsDiqUBeA
0092   3OrBhx0wb6k
0094   yE2B_kCfvss
0097   OHzkICG47LU
0099   M6thh8dLih4
0100   bxtCqs2WFZE
0101   3K_Yh-o2Dns
0102   OdBplvUEyHU
0104   r7jOdhq2Fa4
0105   Juv5Ifs2fFY
0106   0X7XzFg86To
0107   9Cyokaj3BJU
0109   ED87HYX9gXc
0111   WH6UnvSlahc
0114   IDZqmF3zS04
0115   XjRHuCkXHts
0116   2JzgLcXA2CE
0119   _tI91XMrzi0
0120   2g_FD_sYazk
0122   s49jiTieLgU
0123   6GUnfLPpjLs
0124   _m1jU1omerw
0126   crgtWomWg90
0127   LdtX8PewVgA
0128   N-tRXewCAmU
0130   6U8JlcB_BzA
0131   mO0-n7Ot0_o
0133   BGyhTBn4_eU
0134   F-kVFfKezVo
0139   SYjpAdBf7NY
0140   K3RLIU7T39I
0145   8YWBByQoy2A
0147   p_sLs1vpWx8
0149   0i442TVA52E
0153   k02gi1lciHg
0154   k1-6tkRVGZI
0155   ZOI_g9uKwYg
0157   1st_9KudWB0
0158   4Q4QnB8vYT8
0159   OSGGmOf_zdU
0162   dPCRDQYCzFs
0168   62IiMLeryXQ
0169   A4bo4ByFhLM
0170   eP05iSzpz94
0176   WLiuMkGCOC4
0177   fa_FlI8RdUU
0179   l3i20eGNUeY
0180   ojaGcRRGVWI
0181   0z5vNPWfAV4
0182   C21G2OkHEYo
0183   2PDlNMbQiCo
0184   866ZQkAN8vc
0185   0ltGQNqXTzI
0187   gQpIlNTayq8
0188   EYa6NoIn7bs
0190   ngVetZw8hSc
0191   1ntcMjYL7hc
0192   epLWuP_bO-g
0193   k1tYAx7gzq8
0194   UTkJQSVYBuA
0196   0Dk-wjbmHDY
0198   RITa822WmjY
0202   kQvmCzILBfE
0203   9z1EEfqEVL0
0205   gvll72tHTyQ
0206   cm2YyVZBL8U
0207   wIct9ZyL2WA
0208   tfZnN9lr99E
0209   DDa22P5IAHs
0212   emLbvgHoNN0
0213   P4YlBaPM22c
0215   qijQC-m2IDs
0216   FO2jIyPfwqs
0217   hiaKiqIsi2s
0218   qeMtGIB01hA
0221   YlApzZ1EREs
0222   KgfrH-DMAmM
0223   GWGP1LCR8x8
0224   xsHUgpSxMoI
0227   KuPFhDQRKzw
0229   2Kve_N8rmmQ
0231   PiCI64mz6jg
0234   -PuC7xyJsBQ
0235   nYCLARybVOo
0236   mz7bqxeVgNw
0238   oVDBxv7iclY
0239   RQOaLP-qPmk
0240   hjCoBTzrN9E
0242   x0hmHGGAwzw
0245   1Pr1O8e6Bg0
0246   oQiuOyObbTY
0248   -r_-5RA5rjI
0249   RJNgEZyEeh8
0250   CNrhjSWUwfE
0251   QXoQLiP8REM
0253   SivX8I-Q-2w
0254   S6YXK7ahOdo
0256   py8iB59USaE
0257   kLudpufDYHI
0259   j9H5qt_C5oM
0261   COMc3K-97z4
0264   nasDz1IJy1M
0265   OrMY8zKPySU
0267   lhfgI-lFcf0
0268   1BznwKyYadg
0269   wy04c-6DEgE
0270   Vcfaqc-Li84
0271   lwmLAlEVcWM
0276   wS16qF7PEVg
0278   1LDqQ6e6BTE
0280   URU-gWAOlDM
0281   eQpKe38rbjg
0282   zavbgO1s8io
0288   uXdjxAW-44o
0289   or5a22emg3A
0290   SnQ4rlwV4RE
0291   XJe-bzrHu5E
0296   vzePxDeaucg
0297   JdIGkpmc4jU
0300   oohFGOmcxuo
0302   bVVvpW_5vgw
0303   VjMk-pKvMDw
0306   InBXu-iY7cw
0307   drkXXuxKRv4
0308   uj2daexBhgI
0309   LNb4bWIYrOM
0310   N5FrNcAGSj8
0312   UQNzEPCAopE
0314   PJqKkZ1VVMk
0315   fWnRMAVWVjk
0317   IiVscqYrtfM
0319   6RRCZ0QjM2k
0320   JqP19eJLCA0
0322   ohzS5vRJkHw
0324   9iBgTqz_-vY
0325   FlniXm7FQ0g
0331   BhkY28_9Ra4
0334   DZ82pqHa-70
0336   mC6l7ypNqKA
0338   3w0aTMT4KMM
0339   N0OG-zWGlCM
0341   CZVegUrRzi4
0343   WFf6UyFSoC4
0345   ckPDxGb2bbk
0347   8l9qtNxqbng
0348   bmLWEqMJtko
0351   4LNH27s5ULE
0352   s4EmxvQSpfA
0353   m6McutncHWA
0354   2sd6P2Tu8rw
0355   pA1A-zAGxN8
0356   WFBJFdKs0GM
0358   F_vtthM4vUQ
0359   B0N9yFcz4ho
0361   nss4khjss7o
0364   _tKIPuLfeKg
0366   wh1tSzufXX0
0367   KMW5xam4sRo
0369   _W4mRH0aQiQ
0370   iNlh8ZhJpEE
0371   GP7WvMjAA0g
0372   uBcpG3CmB2s
0377   WJYJVxYnISI
0380   1lGrShe7t7c
0381   NGaVUApDVuY
0382   1ojAj_EQkBk
0383   LRGA3CPp6hI
0384   1HRlyk5bR-w
0385   -HUjL7dOdZU
0386   UxUW8xpex68
0387   XzcWwmwChVE
0389   n9fcmDhcHxk
0391   MD-9eOWsp8o
0393   B4sUHmb_tV0
0395   V4JGIT3Ookk
0396   JGb5IweiYG8
0399   8o74j7t1tKs
0400   ZssL3nr6JZg
0403   O3AnWOub63A
0406   u4xp2lgiAjY
0407   9TB-SNrT1Ro
0410   cIqbmsgmiXg
0412   sZr1iq-D-YU
0414   kNbOeJzhoTs
0415   wd2clb5T8JA
0418   -rwvH7Y4RG8
0421   U2aIsj8lcik
0425   zOpPRWBNzNs
0426   3fdZWbIsrFk
0427   -L5ezdOheNk
0429   XD4NwIW4uTc
0430   RW0FOJMMIyQ
0432   KjfT1D1lg-E
0433   hfdsrDzF6Iw
0434   jGRkMs_MfrE
0442   1W2kTnEJKQg
0445   Sfti01AZ12k
0448   ukSxA8_VrME
0452   ZomCHyU_8Vs
0455   Dy8dZEpEYrA
0456   w99NAM1eMsg
0461   wG22PtpyktM
0463   qBC2rOUnj-s
0464   8Y2k4xzPR5o
0465   687IeuzDbV8
0467   bMIydy3Tyuw
0468   RKPd9GUadxc
0469   VMdm72iE2Fw
0472   sV1VxGYhIBk
0473   OEo9Bh679wM
0477   jjUt0Zn1ULE
0478   pldfdclhQuc
0479   BZeCXh0hLWc
0480   8-508uccyi8
0481   _45gwZ7vXAg
0484   HqUH6iT7kiY
0490   dPqMuL7PJqU
0492   j75tJNYwWkY
0494   t1EOjmNJgpM
0497   tpi4X4PT1go
0500   sN6Q2SZfuQE
0501   4CNU742cEYY
0506   wRH-aFUQUSA
0507   5zeKijHMtDE
0511   vzc65_LjYXo
0512   1KXMEpKIuX4
0515   bgLOreeGJps
0517   9IQnBfuYK2I
0518   JMbuJXQCIvo
0525   WHmqeux5lr8
0526   3-aN8Yy4j8I
0528   C74HhoRuFEs
0530   snZ2WxftrI0
0531   pUBw-P4_Lnw
0533   Bz2mL8HyJrY
0539   5MEPMInySGU
0540   T48i8RCsJlM
0542   lT2SAh1qyeU
0545   Quv21Vv4Rfk
0546   j3-R8oVuwmE
0549   prQStSL6MKs
0550   kuHJvWxm11Y
0553   mxzfbb8KKwQ
0554   NBYGiajmAVU
0555   1sAm5UCJ9vA
0559   wSQyb0IYcG0
0560   a5_QV97eYqM
0561   ZC7tSx8-1yc
0565   ZspL36dv6NE
0567   5YDhvilyflE
0568   lN00AyY46J4
0570   6fAtSZR93yo
0571   LXm-0zfguBg
0573   q-reTYlIQLM
0577   iTii1rp2EbM
0578   yWwUcytu5Tk
0580   ghpxXzFT_14
0582   eA_kl48xHmQ
0583   9YKwZTcaKZM
0585   PThVd2Ofiwk
0587   HvyCMgAajqk
0588   O71fetlkCZo
0589   F3kImL2gDkI
0590   cnxNjdLZR30
0591   edKq2tQcC_c
0594   LVQnFzZUITM
0599   PccmJEeIUXg
0605   BXsusJ787sU
0606   IF8yjMSb9Qo
0607   JoM_5aT9Gks
0608   NNAOeU1sqZE
0610   BG6cdD_osNU
0614   0mK076cVA9Q
0615   tsE7W4RRdNg
0616   8wpsKzL688g
0617   jJ7zC8owRbk
0618   rXJL7tlECg0
0619   iPqIY5JHJNE
0620   mnE4HFtG_NQ
0621   m9We2XsVZfc
0623   a_3age8HX-Q
0625   mcwyyFOeu5E
0627   Dy8gHfGIS_A
0631   UmR4y4slhmo
0633   GbevQH1B9ic
0634   D8UJ-5idmDQ
0635   xGdLDOXyWsg
0637   vMSVHpImkzE
0638   Py9SfTkeYaY
0640   _vQ1MucCqKI
0643   dN5pLFtBA9A
0645   UCmUhYSr-e4
0647   wYYDaDPmqBs
0649   PMJrAp9WFzQ
0650   efl6nkFVmoI
0651   ZvzLGlaCoRM
0654   ZeJkbqjQvnk
0655   8ezygBRtNPw
0656   cUCLZ3v-F5w
0658   sSh9njfvRts
0662   muNjUtdnrNI
0663   8wx5CHbigFA
0670   LniY0pDQGaE
0671   Z0ZK1DvTBpw
0674   ZqjVAgT74_A
0677   f8X44hTpBmQ
0678   XNYCHSE0wno
0681   cJZMTcyqsYk
0683   xj4TVB5CMig
0687   t4uqGVvGT5g
0688   heRyBhKi3kA
0689   HJb7m4Nnn30
0690   a-pswfTBt78
0692   nGv6mw8005I
0696   LN38Xaaxuh4
0698   GaT4K6GoWts
0699   qnc9cTaVLGA
0701   fLjE-2_Luaw
0705   ypTEL8KH-EM
0706   DbiHf3fpkXo
0707   oLCwDFwFIBI
0708   lvHK8-g7qRw
0711   Qm87yvHmwqA
0713   hRV5J98MG48
0720   LFUOEflVvGU
0722   _7u2xisslW0
0726   hyMTOmY7s-g
0727   YtuybFrq7Rw
0729   fvhTCUDHbvs
0731   RShRoz8aqXQ
0734   U4IAHmOiFDo
0735   kKhGUukG5_c
0736   9Ui3lQizq30
0743   wXrzfPdwuZU
0746   beeGD72Z9bg
0747   maTXr9O0Jl8
0748   VJcwqyhUtH0
0749   5xmVEqp17DU
0752   U9tK2_LnxxI
0758   mQCP8h_NmLM
0761   57bcWE-d_nc
0762   iB9qu_MyQUA
0770   kx7oZmRy5AI
0772   NUbz2NEAi80
0773   zwwFKzVAHSw
0775   _cU82naWcLg
0777   dwt3kr0_l6I
0779   TXspoE3Zwo0
0787   JfwGL1SN-Zw
0788   m34m6-YhjAc
0789   QL7HBqncZ8k
0790   X7a-PtSs8hE
0791   WUxxTYFf-6E
0792   qL0yCc43J78
0793   SU4rJ6Z4hNs
0794   TqbViweiteQ
0796   qdTDFUaaL9s
0797   QK4-UqEz0Xg
0798   EQhAkVKOfLQ
0802   qogVHlmFcx0
0803   y9SuMS9LDPI
0807   -wAkvt4_520
0809   vKOxbA_W_5Q
0810   sd0GlrcOLTA
0812   lNDHi1b5xJA
0813   kLiSZPTj4qI
0818   m71vMinjvyU
0821   0i3cM3XDrWM
0822   xArGWihBJd8
0824   298nld4Yfds
0827   bn_NUzz_xiE
0828   z88ddt8fiho
0830   Y530MuXuVrk
0831   poRjqrGHKho
0834   iqzz_YGPa2E
0838   zxecATqC_IQ
0841   VNaUl5P5k9g
0842   QBwqdA7_4lo
0843   jq_BAHIAuNw
0844   hATjg5VxJag
0845   Xry_ooH9yY0
0847   pJBmO-xKwz0
0848   BH4dCWTQrPQ
0853   oroSpLjkCvo
0856   1hvSu5JScYc
0857   xivdM3OCV04
0859   4ww7Q2fGJ64
0861   XWhInhE6emE
0864   Y5cvWAyQgZ8
0865   m1QnhnTaxFM
0875   Ngkw2S5EY5I
0879   A8qp9YtWCK8
0884   sXPkmIwwobA
0886   vdg01-6HNQA
0887   CGk962QLIzk
0890   TyVrKV_Klzg
0891   JY3hUdK56IM
0893   bX7V6FAoTLc
0894   9ZcfZ9n6V6c
0898   r82vyxc1xrg
0900   QSkKzPwXFxc
0901   Lrtm49sL_Hw
0902   Ns3mkC9_AFc
0905   M_hYdywoV_Q
0913   DvoGYXtV5GA
0914   i3dvoIZjUqE
0915   63_lnC5QxvQ
0920   f_G-3BmGp7c
0925   Nv4bsiGmyNc
0926   XMA8gHCkOfQ
0928   4u_7-KVWgdk
0929   WPe4bBr4zZI
0932   41vPV0muDOs
0933   QH81RJtakRU
0935   PVY691ObVJE
0941   OeCXsHX_J7I
0943   I5mTUfhlDn8
0944   GIOv4iQUXCI
0945   XSv-lBLfFaY
0946   2OFl4AjgxtA
0948   im9XuJJXylw
0950   qZXafqof2H0
0952   c-Uok2t46UQ
0956   KeU6TqmbsBo
0958   uetJoJj0M88
0961   RVAef8T7ewA
0964   FLkbKWZmGkc
0965   F9JLudnKFcs
0967   O8ysfBys4cg
0968   IEtbin9pwSc
0969   kdX2a7v4Q5w
0973   OX54m4YEGlI
0978   coAriWqFgxQ
0979   AD70zuG6HqY
0981   JH3WvI_S6-k
0982   vDN5rG3wLa4
0984   m3Y1O9eVKRs
0985   dHJUPm8X8I0
0986   12vnHaggUeE
0990   Jc17DqcA6Qc
0991   cdrFBwwWJ44
0992   WMSbBg4_y54
0993   Rc-pnhDSSis
0995   yvx92a79mug
